{
  "Bulbasaur": "Bisasam",
  "Ivysaur": "Bisaknosp",
  "Venusaur": "Bisaflor",
  "Venusaur-Mega": "Bisaflor-Mega",
  "Charmander": "Glumanda",
  "Charmeleon": "Glutexo",
  "Charizard": "Glurak",
  "Charizard-Mega-X": "Glurak-Mega-X",
  "Charizard-Mega-Y": "Glurak-Mega-Y",
  "Squirtle": "Schiggy",
  "Wartortle": "Schillok",
  "Blastoise": "Turtok",
  "Blastoise-Mega": "Turtok-Mega",
  "Caterpie": "Raupy",
  "Metapod": "Safcon",
  "Butterfree": "Smettbo",
  "Weedle": "Hornliu",
  "Kakuna": "Kokuna",
  "Beedrill": "Bibor",
  "Beedrill-Mega": "Bibor-Mega",
  "Pidgey": "Taubsi",
  "Pidgeotto": "Tauboga",
  "Pidgeot": "Tauboss",
  "Pidgeot-Mega": "Tauboss-Mega",
  "Rattata": "Rattfratz",
  "Rattata-alola": "Rattfratz-Alola",
  "Raticate": "Rattikarl",
  "Raticate-Alola": "Rattikarl-Alola",
  "Raticate-Totem-Alola": "Rattikarl-Totem-Alola",
  "Spearow": "Habitak",
  "Fearow": "Ibitak",
  "Ekans": "Rettan",
  "Arbok": "Arbok",
  "Pikachu": "Pikachu",
  "Raichu": "Raichu",
  "Raichu-Alola": "Raichu-Alola",
  "Sandshrew": "Sandan",
  "Sandshrew-Alola": "Sandan-Alola",
  "Sandslash": "Sandamer",
  "Sandslash-Alola": "Sandamer-Alola",
  "Nidoran-f": "Nidoran-f",
  "Nidorina": "Nidorina",
  "Nidoqueen": "Nidoqueen",
  "Nidoran-m": "Nidoran-m",
  "Nidorino": "Nidorino",
  "Nidoking": "Nidoking",
  "Clefairy": "Piepi",
  "Clefable": "Pixi",
  "Vulpix": "Vulpix",
  "Vulpix-Alola": "Vulpix-Alola",
  "Ninetales": "Vulnona",
  "Ninetales-Alola": "Vulnona-Alola",
  "Jigglypuff": "Pummeluff",
  "Wigglytuff": "Knuddeluff",
  "Zubat": "Zubat",
  "Golbat": "Golbat",
  "Oddish": "Myrapla",
  "Gloom": "Duflor",
  "Vileplume": "Giflor",
  "Paras": "Paras",
  "Parasect": "Parasek",
  "Venonat": "Bluzuk",
  "Venomoth": "Omot",
  "Diglett": "Digda",
  "Diglett-Alola": "Digda-Alola",
  "Dugtrio": "Digdri",
  "Dugtrio-Alola": "Digdri-Alola",
  "Meowth-Alola": "Mauzi-Alola",
  "Persian-Alola": "Snobilikat-Alola",
  "Psyduck": "Enton",
  "Golduck": "Entoron",
  "Mankey": "Menki",
  "Primeape": "Rasaff",
  "Growlithe": "Fukano",
  "Arcanine": "Arkani",
  "Poliwag": "Quapsel",
  "Poliwhirl": "Quaputzi",
  "Poliwrath": "Quappo",
  "Abra": "Abra",
  "Kadabra": "Kadabra",
  "Alakazam": "Simsala",
  "Alakazam-Mega": "Simsala-Mega",
  "Machop": "Machollo",
  "Machoke": "Maschock",
  "Machamp": "Machomei",
  "Bellsprout": "Knofensa",
  "Weepinbell": "Ultrigaria",
  "Victreebel": "Sarzenia",
  "Tentacool": "Tentacha",
  "Tentacruel": "Tentoxa",
  "Geodude": "Kleinstein",
  "Geodude-Alola": "Kleinstein-Alola",
  "Graveler": "Georok",
  "Graveler-Alola": "Georok-Alola",
  "Golem": "Geowaz",
  "Golem-Alola": "Geowaz-Alola",
  "Ponyta": "Ponita",
  "Rapidash": "Gallopa",
  "Slowpoke": "Flegmon",
  "Slowbro": "Lahmus",
  "Slowbro-Mega": "Lahmus-Mega",
  "Magnemite": "Magnetilo",
  "Magneton": "Magneton",
  "Farfetchd": "Porenta",
  "Doduo": "Dodu",
  "Dodrio": "Dodri",
  "Seel": "Jurob",
  "Dewgong": "Jugong",
  "Grimer": "Sleima",
  "Grimer-Alola": "Sleima-Alola",
  "Muk": "Sleimok",
  "Muk-Alola": "Sleimok-Alola",
  "Shellder": "Muschas",
  "Cloyster": "Austos",
  "Gastly": "Nebulak",
  "Haunter": "Alpollo",
  "Gengar": "Gengar",
  "Gengar-Mega": "Gengar-Mega",
  "Onix": "Onix",
  "Drowzee": "Traumato",
  "Hypno": "Hypno",
  "Krabby": "Krabby",
  "Kingler": "Kingler",
  "Voltorb": "Voltobal",
  "Electrode": "Lektrobal",
  "Exeggcute": "Owei",
  "Exeggutor": "Kokowei",
  "Exeggutor-Alola": "Kokowei-Alola",
  "Cubone": "Tragosso",
  "Marowak": "Knogga",
  "Marowak-Alola": "Knogga-Alola",
  "Marowak-Totem": "Knogga-Totem",
  "Hitmonlee": "Kicklee",
  "Hitmonchan": "Nockchan",
  "Lickitung": "Schlurp",
  "Koffing": "Smogon",
  "Weezing": "Smogmog",
  "Rhyhorn": "Rihorn",
  "Rhydon": "Rizeros",
  "Chansey": "Chaneira",
  "Tangela": "Tangela",
  "Kangaskhan": "Kangama",
  "Kangaskhan-Mega": "Kangama-Mega",
  "Horsea": "Seeper",
  "Seadra": "Seemon",
  "Goldeen": "Goldini",
  "Seaking": "Golking",
  "Staryu": "Sterndu",
  "Starmie": "Starmie",
  "Mr-Mime": "Pantimos",
  "Scyther": "Sichlor",
  "Jynx": "Rossana",
  "Electabuzz": "Elektek",
  "Magmar": "Magmar",
  "Pinsir": "Pinsir",
  "Pinsir-Mega": "Pinsir-Mega",
  "Tauros": "Tauros",
  "Magikarp": "Karpador",
  "Gyarados": "Garados",
  "Gyarados-Mega": "Garados-Mega",
  "Lapras": "Lapras",
  "Ditto": "Ditto",
  "Eevee": "Evoli",
  "Vaporeon": "Aquana",
  "Jolteon": "Blitza",
  "Flareon": "Flamara",
  "Porygon": "Porygon",
  "Omanyte": "Amonitas",
  "Omastar": "Amoroso",
  "Kabuto": "Kabuto",
  "Kabutops": "Kabutops",
  "Aerodactyl": "Aerodactyl",
  "Aerodactyl-Mega": "Aerodactyl-Mega",
  "Snorlax": "Relaxo",
  "Articuno": "Arktos",
  "Zapdos": "Zapdos",
  "Moltres": "Lavados",
  "Dratini": "Dratini",
  "Dragonair": "Dragonir",
  "Dragonite": "Dragoran",
  "Mewtwo": "Mewtu",
  "Mewtwo-Mega-X": "Mewtu-Mega-X",
  "Mewtwo-Mega-Y": "Mewtu-Mega-Y",
  "Mew": "Mew",
  "Chikorita": "Endivie",
  "Bayleef": "Lorblatt",
  "Meganium": "Meganie",
  "Cyndaquil": "Feurigel",
  "Quilava": "Igelavar",
  "Typhlosion": "Tornupto",
  "Totodile": "Karnimani",
  "Croconaw": "Tyracroc",
  "Feraligatr": "Impergator",
  "Sentret": "Wiesor",
  "Furret": "Wiesenior",
  "Hoothoot": "Hoothoot",
  "Noctowl": "Noctuh",
  "Ledyba": "Ledyba",
  "Ledian": "Ledian",
  "Spinarak": "Webarak",
  "Ariados": "Ariados",
  "Crobat": "Iksbat",
  "Chinchou": "Lampi",
  "Lanturn": "Lanturn",
  "Pichu": "Pichu",
  "Cleffa": "Pii",
  "Igglybuff": "Fluffeluff",
  "Togepi": "Togepi",
  "Togetic": "Togetic",
  "Natu": "Natu",
  "Xatu": "Xatu",
  "Mareep": "Voltilamm",
  "Flaaffy": "Waaty",
  "Ampharos": "Ampharos",
  "Ampharos-Mega": "Ampharos-Mega",
  "Bellossom": "Blubella",
  "Marill": "Marill",
  "Azumarill": "Azumarill",
  "Sudowoodo": "Mogelbaum",
  "Politoed": "Quaxo",
  "Hoppip": "Hoppspross",
  "Skiploom": "Hubelupf",
  "Jumpluff": "Papungha",
  "Aipom": "Griffel",
  "Sunkern": "Sonnkern",
  "Sunflora": "Sonnflora",
  "Yanma": "Yanma",
  "Wooper": "Felino",
  "Quagsire": "Morlord",
  "Espeon": "Psiana",
  "Umbreon": "Nachtara",
  "Murkrow": "Kramurx",
  "Slowking": "Laschoking",
  "Misdreavus": "Traunfugil",
  "Unown": "Icognito",
  "Wobbuffet": "Woingenau",
  "Girafarig": "Girafarig",
  "Pineco": "Tannza",
  "Forretress": "Forstellka",
  "Dunsparce": "Dummisel",
  "Gligar": "Skorgla",
  "Steelix": "Stahlos",
  "Steelix-Mega": "Stahlos-Mega",
  "Snubbull": "Snubbull",
  "Granbull": "Granbull",
  "Qwilfish": "Baldorfish",
  "Scizor": "Scherox",
  "Scizor-Mega": "Scherox-Mega",
  "Shuckle": "Pottrott",
  "Heracross": "Skaraborn",
  "Heracross-Mega": "Skaraborn-Mega",
  "Sneasel": "Sniebel",
  "Teddiursa": "Teddiursa",
  "Ursaring": "Ursaring",
  "Slugma": "Schneckmag",
  "Magcargo": "Magcargo",
  "Swinub": "Quiekel",
  "Piloswine": "Keifel",
  "Corsola": "Corasonn",
  "Remoraid": "Remoraid",
  "Octillery": "Octillery",
  "Delibird": "Botogel",
  "Mantine": "Mantax",
  "Skarmory": "Panzaeron",
  "Houndour": "Hunduster",
  "Houndoom": "Hundemon",
  "Houndoom-Mega": "Hundemon-Mega",
  "Kingdra": "Seedraking",
  "Phanpy": "Phanpy",
  "Donphan": "Donphan",
  "Porygon2": "Porygon2",
  "Stantler": "Damhirplex",
  "Smeargle": "Farbeagle",
  "Tyrogue": "Rabauz",
  "Hitmontop": "Kapoera",
  "Smoochum": "Kussilla",
  "Elekid": "Elekid",
  "Magby": "Magby",
  "Miltank": "Miltank",
  "Blissey": "Heiteira",
  "Raikou": "Raikou",
  "Entei": "Entei",
  "Suicune": "Suicune",
  "Larvitar": "Larvitar",
  "Pupitar": "Pupitar",
  "Tyranitar": "Despotar",
  "Tyranitar-Mega": "Despotar-Mega",
  "Lugia": "Lugia",
  "Ho-Oh": "Ho-Oh",
  "Celebi": "Celebi",
  "Treecko": "Geckarbor",
  "Grovyle": "Reptain",
  "Sceptile": "Gewaldro",
  "Sceptile-Mega": "Gewaldro-Mega",
  "Torchic": "Flemmli",
  "Combusken": "Jungglut",
  "Blaziken": "Lohgock",
  "Blaziken-Mega": "Lohgock-Mega",
  "Mudkip": "Hydropi",
  "Marshtomp": "Moorabbel",
  "Swampert": "Sumpex",
  "Swampert-Mega": "Sumpex-Mega",
  "Poochyena": "Fiffyen",
  "Mightyena": "Magnayen",
  "Zigzagoon": "Zigzachs",
  "Linoone": "Geradaks",
  "Wurmple": "Waumpel",
  "Silcoon": "Schaloko",
  "Beautifly": "Papinella",
  "Cascoon": "Panekon",
  "Dustox": "Pudox",
  "Lotad": "Loturzel",
  "Lombre": "Lombrero",
  "Ludicolo": "Kappalores",
  "Seedot": "Samurzel",
  "Nuzleaf": "Blanas",
  "Shiftry": "Tengulist",
  "Taillow": "Schwalbini",
  "Swellow": "Schwalboss",
  "Wingull": "Wingull",
  "Pelipper": "Pelipper",
  "Ralts": "Trasla",
  "Kirlia": "Kirlia",
  "Gardevoir": "Guardevoir",
  "Gardevoir-Mega": "Guardevoir-Mega",
  "Surskit": "Gehweiher",
  "Masquerain": "Maskeregen",
  "Shroomish": "Knilz",
  "Breloom": "Kapilz",
  "Slakoth": "Bummelz",
  "Vigoroth": "Muntier",
  "Slaking": "Letarking",
  "Nincada": "Nincada",
  "Ninjask": "Ninjask",
  "Shedinja": "Ninjatom",
  "Whismur": "Flurmel",
  "Loudred": "Krakeelo",
  "Exploud": "Krawumms",
  "Makuhita": "Makuhita",
  "Hariyama": "Hariyama",
  "Azurill": "Azurill",
  "Nosepass": "Nasgnet",
  "Skitty": "Eneco",
  "Delcatty": "Enekoro",
  "Sableye": "Zobiris",
  "Sableye-Mega": "Zobiris-Mega",
  "Mawile": "Flunkifer",
  "Mawile-Mega": "Flunkifer-Mega",
  "Aron": "Stollunior",
  "Lairon": "Stollrak",
  "Aggron": "Stolloss",
  "Aggron-Mega": "Stolloss-Mega",
  "Meditite": "Meditie",
  "Medicham": "Meditalis",
  "Medicham-Mega": "Meditalis-Mega",
  "Electrike": "Frizelbliz",
  "Manectric": "Voltenso",
  "Manectric-Mega": "Voltenso-Mega",
  "Plusle": "Plusle",
  "Minun": "Minun",
  "Volbeat": "Volbeat",
  "Illumise": "Illumise",
  "Roselia": "Roselia",
  "Gulpin": "Schluppuck",
  "Swalot": "Schlukwech",
  "Carvanha": "Kanivanha",
  "Sharpedo": "Tohaido",
  "Sharpedo-Mega": "Tohaido-Mega",
  "Wailmer": "Wailmer",
  "Wailord": "Wailord",
  "Numel": "Camaub",
  "Camerupt": "Camerupt",
  "Camerupt-Mega": "Camerupt-Mega",
  "Torkoal": "Qurtel",
  "Spoink": "Spoink",
  "Grumpig": "Groink",
  "Spinda": "Pandir",
  "Trapinch": "Knacklion",
  "Vibrava": "Vibrava",
  "Flygon": "Libelldra",
  "Cacnea": "Tuska",
  "Cacturne": "Noktuska",
  "Swablu": "Wablu",
  "Altaria": "Altaria",
  "Altaria-Mega": "Altaria-Mega",
  "Zangoose": "Sengo",
  "Seviper": "Vipitis",
  "Lunatone": "Lunastein",
  "Solrock": "Sonnfel",
  "Barboach": "Schmerbe",
  "Whiscash": "Welsar",
  "Corphish": "Krebscorps",
  "Crawdaunt": "Krebutack",
  "Baltoy": "Puppance",
  "Claydol": "Lepumentas",
  "Lileep": "Liliep",
  "Cradily": "Wielie",
  "Anorith": "Anorith",
  "Armaldo": "Armaldo",
  "Feebas": "Barschwa",
  "Milotic": "Milotic",
  "Castform": "Formeo",
  "Castform-sunny": "Formeo-Sonne",
  "Castform-Rainy": "Formeo-Regen",
  "Castform-Snowy": "Formeo-Schnee",
  "Kecleon": "Kecleon",
  "Shuppet": "Shuppet",
  "Banette": "Banette",
  "Banette-Mega": "Banette-Mega",
  "Duskull": "Zwirrlicht",
  "Dusclops": "Zwirrklop",
  "Tropius": "Tropius",
  "Chimecho": "Palimpalim",
  "Absol": "Absol",
  "Absol-Mega": "Absol-Mega",
  "Wynaut": "Isso",
  "Snorunt": "Schneppke",
  "Glalie": "Firnontor",
  "Glalie-Mega": "Firnontor-Mega",
  "Spheal": "Seemops",
  "Sealeo": "Seejong",
  "Walrein": "Walraisa",
  "Clamperl": "Perlu",
  "Huntail": "Aalabyss",
  "Gorebyss": "Saganabyss",
  "Relicanth": "Relicanth",
  "Luvdisc": "Liebiskus",
  "Bagon": "Kindwurm",
  "Shelgon": "Draschel",
  "Salamence": "Brutalanda",
  "Salamence-Mega": "Brutalanda-Mega",
  "Beldum": "Tanhel",
  "Metang": "Metang",
  "Metagross": "Metagross",
  "Metagross-Mega": "Metagross-Mega",
  "Regirock": "Regirock",
  "Regice": "Regice",
  "Registeel": "Registeel",
  "Latias": "Latias",
  "Latias-Mega": "Latias-Mega",
  "Latios": "Latios",
  "Latios-Mega": "Latios-Mega",
  "Kyogre": "Kyogre",
  "Kyogre-Primal": "Kyogre-Proto",
  "Groudon": "Groudon",
  "Groudon-Primal": "Groudon-Proto",
  "Rayquaza": "Rayquaza",
  "Rayquaza-Mega": "Rayquaza-Mega",
  "Jirachi": "Jirachi",
  "Deoxys": "Deoxys",
  "Deoxys-attack": "Deoxys-Angriff",
  "Deoxys-defense": "Deoxys-Verteidigung",
  "Deoxys-speed": "Deoxys-Initiative",
  "Turtwig": "Chelast",
  "Grotle": "Chelcarain",
  "Torterra": "Chelterrar",
  "Chimchar": "Panflam",
  "Monferno": "Panpyro",
  "Infernape": "Panferno",
  "Piplup": "Plinfa",
  "Prinplup": "Pliprin",
  "Empoleon": "Impoleon",
  "Starly": "Staralili",
  "Staravia": "Staravia",
  "Staraptor": "Staraptor",
  "Bidoof": "Bidiza",
  "Bibarel": "Bidifas",
  "Kricketot": "Zirpurze",
  "Kricketune": "Zirpeise",
  "Shinx": "Sheinux",
  "Luxio": "Luxio",
  "Luxray": "Luxtra",
  "Budew": "Knospi",
  "Roserade": "Roserade",
  "Cranidos": "Koknodon",
  "Rampardos": "Rameidon",
  "Shieldon": "Schilterus",
  "Bastiodon": "Bollterus",
  "Burmy": "Burmy",
  "Wormadam": "Burmadame",
  "Wormadam-Normal": "Burmadame-Normal",
  "Wormadam-Sandy": "Burmadame-Sand",
  "Wormadam-Trash": "Burmadame-Lumpen",
  "Mothim": "Moterpel",
  "Combee": "Wadribie",
  "Vespiquen": "Honweisel",
  "Pachirisu": "Pachirisu",
  "Buizel": "Bamelin",
  "Floatzel": "Bojelin",
  "Cherubi": "Kikugi",
  "Cherrim": "Kinoso",
  "Shellos": "Schalellos",
  "Gastrodon": "Gastrodon",
  "Ambipom": "Ambidiffel",
  "Drifloon": "Driftlon",
  "Drifblim": "Drifzepeli",
  "Buneary": "Haspiror",
  "Lopunny": "Schlapor",
  "Lopunny-Mega": "Schlapor-Mega",
  "Mismagius": "Traunmagil",
  "Honchkrow": "Kramshef",
  "Glameow": "Charmian",
  "Purugly": "Shnurgarst",
  "Chingling": "Klingplim",
  "Stunky": "Skunkapuh",
  "Skuntank": "Skuntank",
  "Bronzor": "Bronzel",
  "Bronzong": "Bronzong",
  "Bonsly": "Mobai",
  "Mime-Jr": "Pantimimi",
  "Happiny": "Wonneira",
  "Chatot": "Plaudagei",
  "Spiritomb": "Kryppuk",
  "Gible": "Kaumalat",
  "Gabite": "Knarksel",
  "Garchomp": "Knakrack",
  "Garchomp-Mega": "Knakrack-Mega",
  "Munchlax": "Mampfaxo",
  "Riolu": "Riolu",
  "Lucario": "Lucario",
  "Lucario-Mega": "Lucario-Mega",
  "Hippopotas": "Hippopotas",
  "Hippowdon": "Hippoterus",
  "Skorupi": "Pionskora",
  "Drapion": "Piondragi",
  "Croagunk": "Glibunkel",
  "Toxicroak": "Toxiquak",
  "Carnivine": "Venuflibis",
  "Finneon": "Finneon",
  "Lumineon": "Lumineon",
  "Mantyke": "Mantirps",
  "Snover": "Shnebedeck",
  "Abomasnow": "Rexblisar",
  "Abomasnow-Mega": "Rexblisar-Mega",
  "Weavile": "Snibunna",
  "Magnezone": "Magnezone",
  "Lickilicky": "Schlurplek",
  "Rhyperior": "Rihornior",
  "Tangrowth": "Tangoloss",
  "Electivire": "Elevoltek",
  "Magmortar": "Magbrant",
  "Togekiss": "Togekiss",
  "Yanmega": "Yanmega",
  "Leafeon": "Folipurba",
  "Glaceon": "Glaziola",
  "Gliscor": "Skorgro",
  "Mamoswine": "Mamutel",
  "Porygon-Z": "Porygon-Z",
  "Gallade": "Galagladi",
  "Gallade-Mega": "Galagladi-Mega",
  "Probopass": "Voluminas",
  "Dusknoir": "Zwirrfinst",
  "Froslass": "Frosdedje",
  "Rotom": "Rotom",
  "Rotom-Heat": "Rotom-Hitze",
  "Rotom-Wash": "Rotom-Wasch",
  "Rotom-Frost": "Rotom-Frost",
  "Rotom-Fan": "Rotom-Wirbel",
  "Rotom-Mow": "Rotom-Schneid",
  "Uxie": "Selfe",
  "Mesprit": "Vesprit",
  "Azelf": "Tobutz",
  "Dialga": "Dialga",
  "Palkia": "Palkia",
  "Heatran": "Heatran",
  "Regigigas": "Regigigas",
  "Giratina": "Giratina",
  "Giratina-altered": "Giratina-Wandel",
  "Giratina-Origin": "Giratina-Ur",
  "Cresselia": "Cresselia",
  "Phione": "Phione",
  "Manaphy": "Manaphy",
  "Darkrai": "Darkrai",
  "Shaymin": "Shaymin",
  "Shaymin-Land": "Shaymin-Land",
  "Shaymin-Sky": "Shaymin-Zenit",
  "Arceus": "Arceus",
  "Victini": "Victini",
  "Snivy": "Serpifeu",
  "Servine": "Efoserp",
  "Serperior": "Serpiroyal",
  "Tepig": "Floink",
  "Pignite": "Ferkokel",
  "Emboar": "Flambirex",
  "Oshawott": "Ottaro",
  "Dewott": "Zwottronin",
  "Samurott": "Admurai",
  "Patrat": "Nagelotz",
  "Watchog": "Kukmarda",
  "Lillipup": "Yorkleff",
  "Herdier": "Terribark",
  "Stoutland": "Bissbark",
  "Purrloin": "Felilou",
  "Liepard": "Kleoparda",
  "Pansage": "Vegimak",
  "Simisage": "Vegichita",
  "Pansear": "Grillmak",
  "Simisear": "Grillchita",
  "Panpour": "Sodamak",
  "Simipour": "Sodachita",
  "Munna": "Somniam",
  "Musharna": "Somnivora",
  "Pidove": "Dusselgurr",
  "Tranquill": "Navitaub",
  "Unfezant": "Fasasnob",
  "Blitzle": "Elezeba",
  "Zebstrika": "Zebritz",
  "Roggenrola": "Kiesling",
  "Boldore": "Sedimantur",
  "Gigalith": "Brockoloss",
  "Woobat": "Fleknoil",
  "Swoobat": "Fletiamo",
  "Drilbur": "Rotomurf",
  "Excadrill": "Stalobor",
  "Audino": "Ohrdoch",
  "Audino-Mega": "Ohrdoch-Mega",
  "Timburr": "Praktibalk",
  "Gurdurr": "Strepoli",
  "Conkeldurr": "Meistagrif",
  "Tympole": "Schallquap",
  "Palpitoad": "Mebrana",
  "Seismitoad": "Branawarz",
  "Throh": "Jiutesto",
  "Sawk": "Karadonis",
  "Sewaddle": "Strawickl",
  "Swadloon": "Folikon",
  "Leavanny": "Matrifol",
  "Venipede": "Toxiped",
  "Whirlipede": "Rollum",
  "Scolipede": "Cerapendra",
  "Cottonee": "Waumboll",
  "Whimsicott": "Elfun",
  "Petilil": "Lilminip",
  "Lilligant": "Dressella",
  "Basculin": "Barschuft",
  "Sandile": "Ganovil",
  "Krokorok": "Rokkaiman",
  "Krookodile": "Rabigator",
  "Darumaka": "Flampion",
  "Darmanitan-standard": "Flampivian",
  "Darmanitan-Zen": "Flampivian-Trance",
  "Maractus": "Maracamba",
  "Dwebble": "Lithomith",
  "Crustle": "Castellith",
  "Scraggy": "Zurrokex",
  "Scrafty": "Irokex",
  "Sigilyph": "Symvolara",
  "Yamask": "Makabaja",
  "Cofagrigus": "Echnatoll",
  "Tirtouga": "Galapaflos",
  "Carracosta": "Karippas",
  "Archen": "Flapteryx",
  "Archeops": "Aeropteryx",
  "Trubbish": "Unratütox",
  "Garbodor": "Deponitox",
  "Zorua": "Zorua",
  "Zoroark": "Zoroark",
  "Minccino": "Picochilla",
  "Cinccino": "Chillabell",
  "Gothita": "Mollimorba",
  "Gothorita": "Hypnomorba",
  "Gothitelle": "Morbitesse",
  "Solosis": "Monozyto",
  "Duosion": "Mitodos",
  "Reuniclus": "Zytomega",
  "Ducklett": "Piccolente",
  "Swanna": "Swaroness",
  "Vanillite": "Gelatini",
  "Vanillish": "Gelatroppo",
  "Vanilluxe": "Gelatwino",
  "Deerling": "Sesokitz",
  "Sawsbuck": "Kronjuwild",
  "Emolga": "Emolga",
  "Karrablast": "Laukaps",
  "Escavalier": "Cavalanzas",
  "Foongus": "Tarnpignon",
  "Amoonguss": "Hutsassa",
  "Frillish": "Quabbel",
  "Jellicent": "Apoquallyp",
  "Alomomola": "Mamolida",
  "Joltik": "Wattzapf",
  "Galvantula": "Voltula",
  "Ferroseed": "Kastadur",
  "Ferrothorn": "Tentantel",
  "Klink": "Klikk",
  "Klang": "Kliklak",
  "Klinklang": "Klikdiklak",
  "Tynamo": "Zapplardin",
  "Eelektrik": "Zapplalek",
  "Eelektross": "Zapplarang",
  "Elgyem": "Pygraulon",
  "Beheeyem": "Megalon",
  "Litwick": "Lichtel",
  "Lampent": "Laternecto",
  "Chandelure": "Skelabra",
  "Axew": "Milza",
  "Fraxure": "Sharfax",
  "Haxorus": "Maxax",
  "Cubchoo": "Petznief",
  "Beartic": "Siberio",
  "Cryogonal": "Frigometri",
  "Shelmet": "Schnuthelm",
  "Accelgor": "Hydragil",
  "Stunfisk": "Flunschlik",
  "Mienfoo": "Lin-Fu",
  "Mienshao": "Wie-Shu",
  "Druddigon": "Shardrago",
  "Golett": "Golbit",
  "Golurk": "Golgantes",
  "Pawniard": "Gladiantri",
  "Bisharp": "Caesurio",
  "Bouffalant": "Bisofank",
  "Rufflet": "Geronimatz",
  "Braviary": "Washakwil",
  "Vullaby": "Skallyk",
  "Mandibuzz": "Grypheldis",
  "Heatmor": "Furnifraß",
  "Durant": "Fermicula",
  "Deino": "Kapuno",
  "Zweilous": "Duodino",
  "Hydreigon": "Trikephalo",
  "Larvesta": "Ignivor",
  "Volcarona": "Ramoth",
  "Cobalion": "Kobalium",
  "Terrakion": "Terrakium",
  "Virizion": "Viridium",
  "Tornadus": "Boreos",
  "Tornadus-Incarnate": "Boreos-Inkarnation",
  "Tornadus-Therian": "Boreos-Tiergeist",
  "Thundurus": "Voltolos",
  "Thundurus-Incarnate": "Voltolos-Inkarnation",
  "Thundurus-Therian": "Voltolos-Tiergeist",
  "Reshiram": "Reshiram",
  "Zekrom": "Zekrom",
  "Landorus": "Demeteros",
  "Landorus-Incarnate": "Demeteros-Inkarnation",
  "Landorus-Therian": "Demeteros-Tiergeist",
  "Kyurem": "Kyurem",
  "Kyurem-black": "Kyurem-Schwarz",
  "Kyurem-White": "Kyurem-Weiß",
  "Keldeo": "Keldeo",
  "Keldeo-ordinary": "Keldeo",
  "Keldeo-Resolute": "Keldeo-Resolut",
  "Meloetta": "Meloetta",
  "Meloetta-Aria": "Meloetta-Gesang",
  "Meloetta-Pirouette": "Meloetta-Tanz",
  "Genesect": "Genesect",
  "Chespin": "Igamaro",
  "Quilladin": "Igastarnish",
  "Chesnaught": "Brigaron",
  "Fennekin": "Fynx",
  "Braixen": "Rutena",
  "Delphox": "Fennexis",
  "Froakie": "Froxy",
  "Frogadier": "Amphizel",
  "Greninja": "Quajutsu",
  "Greninja-Battle-bond": "Quajutsu-Kampfgebunden",
  "Greninja-Ash": "Quajutsu-Ash",
  "Bunnelby": "Scoppel",
  "Diggersby": "Grebbit",
  "Fletchling": "Dartiri",
  "Fletchinder": "Dartignis",
  "Talonflame": "Fiaro",
  "Scatterbug": "Purmel",
  "Spewpa": "Puponcho",
  "Vivillon": "Vivillon",
  "Litleo": "Leufeo",
  "Pyroar": "Pyroleo",
  "Flabebe": "Flabebe",
  "Floette": "Floette",
  "Floette-Eternal": "Floette-Eternal",
  "Florges": "Florges",
  "Skiddo": "Mähikel",
  "Gogoat": "Chevrumm",
  "Pancham": "Pam-Pam",
  "Pangoro": "Pandagro",
  "Furfrou": "Coiffwaff",
  "Espurr": "Psiau",
  "Meowstic": "Psiaugon",
  "Meowstic-male": "Psiaugon-M",
  "Meowstic-female": "Psiaugon-F",
  "Honedge": "Gramokles",
  "Doublade": "Duokles",
  "Aegislash": "Durengard",
  "Aegislash-Shield": "Durengard-Schild",
  "Aegislash-Blade": "Durengard-Schwert",
  "Spritzee": "Parfi",
  "Aromatisse": "Parfinesse",
  "Swirlix": "Flauschling",
  "Slurpuff": "Sabbaione",
  "Inkay": "Iscalar",
  "Malamar": "Calamanero",
  "Binacle": "Bithora",
  "Barbaracle": "Thanathora",
  "Skrelp": "Algitt",
  "Dragalge": "Tandrak",
  "Clauncher": "Scampisto",
  "Clawitzer": "Wummer",
  "Helioptile": "Eguana",
  "Heliolisk": "Elezard",
  "Tyrunt": "Balgoras",
  "Tyrantrum": "Monargoras",
  "Amaura": "Amarino",
  "Aurorus": "Amagarga",
  "Sylveon": "Feelinara",
  "Hawlucha": "Resladero",
  "Dedenne": "Dedenne",
  "Carbink": "Rocara",
  "Goomy": "Viscora",
  "Sliggoo": "Viscargot",
  "Goodra": "Viscogon",
  "Klefki": "Clavion",
  "Phantump": "Paragoni",
  "Trevenant": "Trombork",
  "Pumpkaboo": "Irrbis",
  "Pumpkaboo-Average": "Irrbis-Mittel",
  "Pumpkaboo-Small": "Irrbis-Klein",
  "Pumpkaboo-Large": "Irrbis-Groß",
  "Pumpkaboo-Super": "Irrbis-Super",
  "Gourgeist": "Pumpdjinn",
  "Gourgeist-Average": "Pumpdjinn-Mittel",
  "Gourgeist-Small": "Pumpdjinn-Klein",
  "Gourgeist-Large": "Pumpdjinn-Groß",
  "Gourgeist-Super": "Pumpdjinn-Super",
  "Bergmite": "Arktip",
  "Avalugg": "Arktilas",
  "Noibat": "eF-eM",
  "Noivern": "UHaFnir",
  "Xerneas": "Xerneas",
  "Yveltal": "Yveltal",
  "Zygarde": "Zygarde",
  "Zygarde-10": "Zygarde-10",
  "Zygarde-50": "Zygarde-50",
  "Zygarde-Complete": "Zygarde-Optimum",
  "Diancie": "Diancie",
  "Diancie-Mega": "Diancie-Mega",
  "Hoopa": "Hoopa",
  "Hoopa-Unbound": "Hoopa-Entfesselt",
  "Volcanion": "Volcanion",
  "Rowlet": "Bauz",
  "Dartrix": "Arboretoss",
  "Decidueye": "Silvarro",
  "Litten": "Flamiau",
  "Torracat": "Miezunder",
  "Incineroar": "Fuegro",
  "Popplio": "Robball",
  "Brionne": "Marikeck",
  "Primarina": "Primarene",
  "Pikipek": "Peppeck",
  "Trumbeak": "Trompeck",
  "Toucannon": "Tukanon",
  "Yungoos": "Mangunior",
  "Gumshoos": "Manguspektor",
  "Gumshoos-Totem": "Manguspektor-Totem",
  "Grubbin": "Mabula",
  "Charjabug": "Akkup",
  "Vikavolt": "Donarion",
  "Vikavolt-Totem": "Donarion-Totem",
  "Crabrawler": "Krabbox",
  "Crabominable": "Krawell",
  "Oricorio": "Choreogel",
  "Oricorio-Baile": "Choreogel-Flamenco",
  "Oricorio-Pom-Pom": "Choreogel-Cheerleading",
  "Oricorio-Pau": "Choreogel-Hula",
  "Oricorio-Sensu": "Choreogel-Buyo",
  "Cutiefly": "Wommel",
  "Ribombee": "Bandelby",
  "Ribombee-Totem": "Bandelby-Totem",
  "Rockruff": "Wuffels",
  "Rockruff-Own-Tempo": "Wuffels-Eigentempo",
  "Lycanroc": "Wolwerock",
  "Lycanroc-Midday": "Wolwerock-Mittags",
  "Lycanroc-Midnight": "Wolwerock-Mitternacht",
  "Lycanroc-Dusk": "Wolwerock-Dämmerung",
  "Wishiwashi": "Lusardin",
  "Wishiwashi-Solo": "Lusardin-Einzel",
  "Wishiwashi-School": "Lusardin-Schwarm",
  "Mareanie": "Garstella",
  "Toxapex": "Aggrostella",
  "Mudbray": "Pampuli",
  "Mudsdale": "Pampross",
  "Dewpider": "Araqua",
  "Araquanid": "Aranestro",
  "Araquanid-Totem": "Aranestro-Totem",
  "Fomantis": "Imantis",
  "Lurantis": "Mantidea",
  "Lurantis-Totem": "Mantidea-Totem",
  "Morelull": "Bubungus",
  "Shiinotic": "Lamellux",
  "Salandit": "Molunk",
  "Salazzle": "Amfira",
  "Salazzle-Totem": "Amfira-Totem",
  "Stufful": "Velursi",
  "Bewear": "Kosturso",
  "Bounsweet": "Frubberl",
  "Steenee": "Frubaila",
  "Tsareena": "Fruyal",
  "Comfey": "Curelei",
  "Oranguru": "Kommandutan",
  "Passimian": "Quartermak",
  "Wimpod": "Reißlaus",
  "Golisopod": "Tectass",
  "Sandygast": "Sankabuh",
  "Palossand": "Colossand",
  "Pyukumuku": "Gufa",
  "Type-Null": "Typ-Null",
  "Silvally": "Amigento",
  "Minior-Red": "Meteno",
  "Komala": "Koalelu",
  "Turtonator": "Tortunator",
  "Togedemaru": "Togedemaru",
  "Togedemaru-Totem": "Togedemaru-Totem",
  "Mimikyu": "Mimigma",
  "Mimikyu-Disguised": "Mimigma",
  "Mimikyu-Totem-Disguised": "Mimigma-Totem-Disguised",
  "Mimikyu-Busted": "Mimigma-Busted",
  "Mimikyu-Totem-Busted": "Mimigma-Totem-Busted",
  "Bruxish": "Knirfish",
  "Drampa": "Sen-Long",
  "Dhelmise": "Moruda",
  "Jangmo-o": "Miniras",
  "Hakamo-o": "Mediras",
  "Kommo-o": "Grandiras",
  "Kommo-o-Totem": "Grandiras-Totem",
  "Tapu-Koko": "Kapu-Riki",
  "Tapu-Lele": "Kapu-Fala",
  "Tapu-Bulu": "Kapu-Toro",
  "Tapu-Fini": "Kapu-Kime",
  "Cosmog": "Cosmog",
  "Cosmoem": "Cosmovum",
  "Solgaleo": "Solgaleo",
  "Lunala": "Lunala",
  "Nihilego": "Anego",
  "Buzzwole": "Masskito",
  "Pheromosa": "Schabelle",
  "Xurkitree": "Voltriant",
  "Celesteela": "Kaguron",
  "Kartana": "Katagami",
  "Guzzlord": "Schlingking",
  "Necrozma": "Necrozma",
  "Necrozma-Dusk": "Necrozma-Abend",
  "Necrozma-Dawn": "Necrozma-Morgen",
  "Necrozma-Ultra": "Necrozma-Ultra",
  "Magearna": "Magearna",
  "Magearna-Original": "Magearna-Original",
  "Marshadow": "Marshadow",
  "Poipole": "Venicro",
  "Naganadel": "Agoyon",
  "Stakataka": "Muramura",
  "Blacephalon": "Kopplosio",
  "Zeraora": "Zeraora",
  "Meltan": "Meltan",
  "Melmetal": "Melmetal"
}